{
  "images" : [
    {
      "idiom" : "universal",
      "filename" : "APP圖檔-MES-Blue.png",
      "scale" : "1x"
    },
    {
      "idiom" : "universal",
      "filename" : "APP圖檔-MES-Blue-1.png",
      "scale" : "2x"
    },
    {
      "idiom" : "universal",
      "filename" : "APP圖檔-MES-Blue-2.png",
      "scale" : "3x"
    }
  ],
  "info" : {
    "version" : 1,
    "author" : "xcode"
  }
}